boards/690t/bypass_690t/iladata.vcd
$date
        2022-Nov-18 18:12:33
$end
$version
        Vivado v2018.2 (64-bit)
$end
$timescale
        1ps
$end
$scope module dut $end
$var reg 1 " ep_m_axis_cq_tready $end
$var reg 1 # ep_m_axis_cq_tvalid $end
$var reg 1 $ ep_m_axis_cq_tlast $end
$var reg 4 % ep_m_axis_cq_tkeep [3:0] $end
$var reg 128 ) ep_m_axis_cq_tdata [127:0] $end
$var reg 85 K" ep_m_axis_cq_tuser [84:0] $end
$var reg 1 B# ep_s_axis_cc_tready $end
$var reg 1 C# ep_s_axis_cc_tvalid $end
$var reg 1 D# ep_s_axis_cc_tlast $end
$var reg 4 E# ep_s_axis_cc_tkeep [3:0] $end
$var reg 128 I# ep_s_axis_cc_tdata [127:0] $end
$var reg 33 k$ ep_s_axis_cc_tuser [32:0] $end
$var reg 1 .% ep_s_axis_rq_tready $end
$var reg 1 /% ep_s_axis_rq_tvalid $end
$var reg 1 0% ep_s_axis_rq_tlast $end
$var reg 4 1% ep_s_axis_rq_tkeep [3:0] $end
$var reg 128 5% ep_s_axis_rq_tdata [127:0] $end
$var reg 8 W& ep_s_axis_rq_tuser_1 [7:0] $end
$var reg 1 _& <const0>_1 $end
$var reg 1 `& <const0>_2 $end
$var reg 1 a& <const0>_3 $end
$var reg 4 b& ep_s_axis_rq_tuser_2 [14:11] $end
$var reg 1 f& <const0>_4 $end
$var reg 8 g& ep_s_axis_rq_tuser [23:16] $end
$var reg 1 o& <const0>_5 $end
$var reg 1 p& <const0>_6 $end
$var reg 1 q& <const0>_7 $end
$var reg 1 r& <const0>_8 $end
$var reg 1 s& <const0>_9 $end
$var reg 1 t& <const0>_10 $end
$var reg 1 u& <const0>_11 $end
$var reg 1 v& <const0>_12 $end
$var reg 1 w& <const0>_13 $end
$var reg 1 x& <const0>_14 $end
$var reg 1 y& <const0>_15 $end
$var reg 1 z& <const0>_16 $end
$var reg 1 {& <const0>_17 $end
$var reg 1 |& <const0>_18 $end
$var reg 1 }& <const0>_19 $end
$var reg 1 ~& <const0>_20 $end
$var reg 1 !' <const0>_21 $end
$var reg 1 "' <const0>_22 $end
$var reg 1 #' <const0>_23 $end
$var reg 1 $' <const0>_24 $end
$var reg 1 %' <const0>_25 $end
$var reg 1 &' <const0>_26 $end
$var reg 1 '' <const0>_27 $end
$var reg 1 (' <const0>_28 $end
$var reg 1 )' <const0>_29 $end
$var reg 1 *' <const0>_30 $end
$var reg 1 +' <const0>_31 $end
$var reg 1 ,' <const0>_32 $end
$var reg 1 -' <const0>_33 $end
$var reg 1 .' <const0>_34 $end
$var reg 1 /' <const0>_35 $end
$var reg 1 0' <const0>_36 $end
$var reg 1 1' <const0>_37 $end
$var reg 1 2' <const0>_38 $end
$var reg 1 3' <const0>_39 $end
$var reg 1 4' <const0> $end
$var reg 1 5' ep_m_axis_rc_tready $end
$var reg 1 6' ep_m_axis_rc_tvalid $end
$var reg 1 7' ep_m_axis_rc_tlast $end
$var reg 4 8' ep_m_axis_rc_tkeep [3:0] $end
$var reg 128 <' ep_m_axis_rc_tdata [127:0] $end
$var reg 75 ^( ep_m_axis_rc_tuser [74:0] $end
$var reg 1 K) _TRIGGER $end
$var reg 1 L) _WINDOW $end
$var reg 1 M) _GAP $end
$upscope $end
$enddefinitions $end
#0
$dumpvars
1"
0#
0$
b0 %
b0 )
b0 K"
1B#
0C#
0D#
b0 E#
b10000000000000000000000000000000000000000000000000000000000000000000000000000000000000000 I#
b0 k$
1.%
0/%
00%
b0 1%
b1000000000000000000000000000000000000000000000000000000000000000000000000000000000000000000000000000000000000000000000000 5%
b0 W&
0_&
0`&
0a&
b0 b&
0f&
b0 g&
0o&
0p&
0q&
0r&
0s&
0t&
0u&
0v&
0w&
0x&
0y&
0z&
0{&
0|&
0}&
0~&
0!'
0"'
0#'
0$'
0%'
0&'
0''
0('
0)'
0*'
0+'
0,'
0-'
0.'
0/'
00'
01'
02'
03'
04'
15'
06'
07'
b0 8'
b0 <'
b0 ^(
0K)
1L)
0M)
$end
#2
1#
1$
b1111 %
b11100000000000000000001000000000000000000000000000000010000000000000000000000000000000001100010100100000000000000011100 )
b101011101111011000000000000010000000000000000000000000000000000001111 K"
1K)
#3
0#
0$
b0 %
b0 )
b0 K"
#64
0L)
#66
1C#
1D#
b1111 E#
b10000000100000000000000010000000000000000000000000000000101000000000001000000000000011100 I#
b11111010111000100 k$
0K)
#67
0C#
0D#
b0 E#
b10000000000000000000000000000000000000000000000000000000000000000000000000000000000000000 I#
b0 k$
#128
1L)
#130
1#
b1111 %
b11100000000000000000000000000000000000000001000000000010000000000000000000000000000000001100010100100000011000000000000 )
b101111001111011100000000000010000000000000000000000000000000000001111 K"
1K)
#131
1$
b1 %
b101001100000110000000001000000 )
b111111111111001000000000000000000000000000000000000000000111100001111 K"
#132
0#
0$
b1111 %
b11100000000000000000000000000000000000000001000000000010000000000000000000000000000000001100010100100000011000000000000 )
b101111001111011100000000000010000000000000000000000000000000000001111 K"
#155
1#
b11100000000000000000000000000000000000000001000000000010000000000000000000000000000000001100010100100000011000000000100 )
b101111001111011000000000000010000000000000000000000000000000000001111 K"
#156
1$
b1 %
b0 )
b111111111111111100000000000000000000000000000000000000000111100001111 K"
#157
0#
0$
b1111 %
b11100000000000000000000000000000000000000001000000000010000000000000000000000000000000001100010100100000011000000000100 )
b101111001111011000000000000010000000000000000000000000000000000001111 K"
#180
1#
b11100000000000000000000000000000000000000001000000000010000000000000000000000000000000001100010100100000011000000001000 )
#181
1$
b1 %
b0 )
b111111111111111100000000000000000000000000000000000000000111100001111 K"
#182
0#
0$
b1111 %
b11100000000000000000000000000000000000000001000000000010000000000000000000000000000000001100010100100000011000000001000 )
b101111001111011000000000000010000000000000000000000000000000000001111 K"
#192
0L)
#194
1#
1$
b11100000000000000000001000000000000000000000000000000010000000000000000000000000000000001100010100100000011000000001100 )
b101011101111011100000000000010000000000000000000000000000000000001111 K"
0K)
#195
0#
b1 %
b0 )
b111111111111111100000000000000000000000000000000000000000111100001111 K"
#256
1L)
#258
1C#
1D#
b1111 E#
b10000000100000000000000010000000000000000000000000000000101000000000001000000000000001100 I#
b11111010111000110 k$
1K)
#259
0C#
0D#
b0 E#
b10000000000000000000000000000000000000000000000000000000000000000000000000000000000000000 I#
b0 k$
#320
0L)
#322
1#
0$
b1111 %
b11100000000000000000000000000000000000000001000000000010000000000000000000000000000000001100010100100000011000000001100 )
b101111001111011100000000000010000000000000000000000000000000000001111 K"
0K)
#323
1$
b1 %
b1 )
b111111111111111000000000000000000000000000000000000000000111100001111 K"
#324
0#
0$
b1111 %
b11100000000000000000000000000000000000000001000000000010000000000000000000000000000000001100010100100000011000000001100 )
b101111001111011100000000000010000000000000000000000000000000000001111 K"
#384
1L)
#386
1#
1$
b11100000000000000000110000000000000000000000000000000010000000000000000000000000000000001100010100100000000000000000000 )
b101111101111011100000000000010000000000000000000000000000000000001111 K"
1K)
#387
0#
b1 %
b1 )
b111111111111111000000000000000000000000000000000000000000111100001111 K"
#448
0L)
#450
1C#
1D#
b1111 E#
b111100000000110011111111111111000000010000000100000000000001100000000000000000000000000000000101000000000001000000000000000000 I#
b11111011111000110 k$
0K)
#451
0C#
0D#
b0 E#
b10000000000000000000000000000000000000000000000000000000000000000000000000000000000000000 I#
b0 k$
#512
1L)
#514
1#
b1111 %
b11100000000000000000111000000000000000000000000000000010000000000000000000000000000000001100010100100000000000000000100 )
b101011101111011000000000000010000000000000000000000000000000000001111 K"
1K)
#515
0#
b11100000000000000000110000000000000000000000000000000010000000000000000000000000000000001100010100100000000000000000000 )
b101111101111011100000000000010000000000000000000000000000000000001111 K"
#576
0L)
#578
1C#
1D#
b1111 E#
b111100000000000000100000000000010000000100000000000001110000000000000000000000000000000101000000000001000000000000000100 I#
b11101010111000100 k$
0K)
#579
0C#
0D#
b0 E#
b10000000000000000000000000000000000000000000000000000000000000000000000000000000000000000 I#
b0 k$
#640
1L)
#642
1#
b11100000000000000000000000000000000000000000000000000010000000000000000000000000000000001100010100100000000000000001000 )
b101111101111011000000000000010000000000000000000000000000000000001111 K"
1K)
#643
0#
b11100000000000000000111000000000000000000000000000000010000000000000000000000000000000001100010100100000000000000000100 )
b101011101111011000000000000010000000000000000000000000000000000001111 K"
#704
0L)
#706
1C#
1D#
b1111 E#
b10000001000000000000000010000000100000000000000000000000000000000000000000000000101000000000001000000000000001000 I#
b10011011111000100 k$
0K)
#707
0C#
0D#
b0 E#
b10000000000000000000000000000000000000000000000000000000000000000000000000000000000000000 I#
b0 k$
#768
1L)
#770
1#
b11100000000000000000001000000000000000000000000000000010000000000000000000000000000000001100010100100000000000000111100 )
b101011101111011100000000000010000000000000000000000000000000000001111 K"
1K)
#771
0#
b11100000000000000000000000000000000000000000000000000010000000000000000000000000000000001100010100100000000000000001000 )
b101111101111011000000000000010000000000000000000000000000000000001111 K"
#832
0L)
#834
1C#
1D#
b1111 E#
b10000000100000000000000010000000000000000000000000000000101000000000001000000000000111100 I#
b11111010111000110 k$
0K)
#835
0C#
0D#
b0 E#
b10000000000000000000000000000000000000000000000000000000000000000000000000000000000000000 I#
b0 k$
#896
1L)
#898
1#
b11100000000000000000010000000000000000000000000000000010000000000000000000000000000000001100010100100000000000000000000 )
b101011101111011100000000000010000000000000000000000000000000000001111 K"
1K)
#899
0#
b11100000000000000000001000000000000000000000000000000010000000000000000000000000000000001100010100100000000000000111100 )
#960
0L)
#962
1C#
1D#
b1111 E#
b111100000000110011111111111111000000010000000100000000000000100000000000000000000000000000000101000000000001000000000000000000 I#
b11111010111000110 k$
0K)
#963
0C#
0D#
b0 E#
b10000000000000000000000000000000000000000000000000000000000000000000000000000000000000000 I#
b0 k$
#1024
1L)
#1026
1#
b11100000000000000000011000000000000000000000000000000010000000000000000000000000000000001100010100100000000000000000100 )
b101111101111011000000000000010000000000000000000000000000000000001111 K"
1K)
#1027
0#
b11100000000000000000010000000000000000000000000000000010000000000000000000000000000000001100010100100000000000000000000 )
b101011101111011100000000000010000000000000000000000000000000000001111 K"
#1088
0L)
#1090
1C#
1D#
b1111 E#
b111100000000000000100000000000010000000100000000000000110000000000000000000000000000000101000000000001000000000000000100 I#
b11101011111000100 k$
0K)
#1091
0C#
0D#
b0 E#
b10000000000000000000000000000000000000000000000000000000000000000000000000000000000000000 I#
b0 k$
#1152
1L)
#1154
1#
b11100000000000000000100000000000000000000000000000000010000000000000000000000000000000001100010100100000000000000001000 )
b101011101111011000000000000010000000000000000000000000000000000001111 K"
1K)
#1155
0#
b11100000000000000000011000000000000000000000000000000010000000000000000000000000000000001100010100100000000000000000100 )
b101111101111011000000000000010000000000000000000000000000000000001111 K"
#1216
0L)
#1218
1C#
1D#
b1111 E#
b10000001000000000000000010000000100000000000001000000000000000000000000000000000101000000000001000000000000001000 I#
b10011010111000100 k$
0K)
#1219
0C#
0D#
b0 E#
b10000000000000000000000000000000000000000000000000000000000000000000000000000000000000000 I#
b0 k$
#1280
1L)
#1282
1#
0$
b11100000000000000000000000000000000000000001000000000010000000000000000000000000000000001100010100100000000000000010100 )
b101111001111011100000000000010000000000000000000000000000000000001111 K"
1K)
#1283
1$
b1 %
b0 )
b111111111111111100000000000000000000000000000000000000000111100001111 K"
#1284
0#
0$
b1111 %
b11100000000000000000000000000000000000000001000000000010000000000000000000000000000000001100010100100000000000000010100 )
b101111001111011100000000000010000000000000000000000000000000000001111 K"
#1301
1#
1$
b11100000000000000000101000000000000000000000000000000010000000000000000000000000000000001100010100100000000000000011100 )
b101111101111011000000000000010000000000000000000000000000000000001111 K"
#1302
0#
b1 %
b0 )
b111111111111111100000000000000000000000000000000000000000111100001111 K"
#1344
0L)
#1346
1C#
1D#
b1111 E#
b10000000100000000000001010000000000000000000000000000000101000000000001000000000000011100 I#
b11111011111000100 k$
0K)
#1347
0C#
0D#
b0 E#
b10000000000000000000000000000000000000000000000000000000000000000000000000000000000000000 I#
b0 k$
#1408
1L)
#1410
1#
0$
b1111 %
b11100000000000000000000000000000000000000001000000000010000000000000000000000000000000001100010100100000000000000100100 )
b101111001111011100000000000010000000000000000000000000000000000001111 K"
1K)
#1411
1$
b1 %
b111111110000000011111111 )
b111111111111111100000000000000000000000000000000000000000111100001111 K"
#1412
0#
0$
b1111 %
b11100000000000000000000000000000000000000001000000000010000000000000000000000000000000001100010100100000000000000100100 )
b101111001111011100000000000010000000000000000000000000000000000001111 K"
#1435
1#
b11100000000000000000000000000000000000000001000000000010000000000000000000000000000000001100010100100000000000000101000 )
#1436
1$
b1 %
b1010111111110100100000000000000 )
b111111111111010100000000000000000000000000000000000000000111100001111 K"
#1437
0#
0$
b1111 %
b11100000000000000000000000000000000000000001000000000010000000000000000000000000000000001100010100100000000000000101000 )
b101111001111011100000000000010000000000000000000000000000000000001111 K"
#1462
1#
b11100000000000000000000000000000000000000001000000000010000000000000000000000000000000001100010100100000000000000101100 )
b101111001111011000000000000010000000000000000000000000000000000001111 K"
#1463
1$
b1 %
b1001 )
b111111111111111100000000000000000000000000000000000000000111100001111 K"
#1464
0#
0$
b1111 %
b11100000000000000000000000000000000000000001000000000010000000000000000000000000000000001100010100100000000000000101100 )
b101111001111011000000000000010000000000000000000000000000000000001111 K"
#1472
0L)
#1474
1#
b11100000000000000000000000000000000000000001000000000010000000000000000000000000000000001100010100100000000000000110000 )
b101111001111011100000000000010000000000000000000000000000000000001111 K"
0K)
#1475
1$
b1 %
b1011000011011011001000000000000 )
b111111111111001100000000000000000000000000000000000000000111100001111 K"
#1476
0#
0$
b1111 %
b11100000000000000000000000000000000000000001000000000010000000000000000000000000000000001100010100100000000000000110000 )
b101111001111011100000000000010000000000000000000000000000000000001111 K"
#1502
1#
b11100000000000000000000000000000000000000001000000000010000000000000000000000000000000001100010100100000000000000110100 )
b101111001111011000000000000010000000000000000000000000000000000001111 K"
#1503
1$
b1 %
b1001 )
b111111111111111100000000000000000000000000000000000000000111100001111 K"
#1504
0#
0$
b1111 %
b11100000000000000000000000000000000000000001000000000010000000000000000000000000000000001100010100100000000000000110100 )
b101111001111011000000000000010000000000000000000000000000000000001111 K"
#1528
1#
b11100000000000000000000000000000000000000001000000000010000000000000000000000000000000001100010100100000000000000010100 )
b101111001111011100000000000010000000000000000000000000000000000001111 K"
#1529
1$
b1 %
b10001100000000000000001 )
b111111111111101000000000000000000000000000000000000000000111100001111 K"
#1530
0#
0$
b1111 %
b11100000000000000000000000000000000000000001000000000010000000000000000000000000000000001100010100100000000000000010100 )
b101111001111011100000000000010000000000000000000000000000000000001111 K"
#1536
1L)
#1538
1#
1$
b11100000000000000000110000000000000000000000000000000010000000000000000000000000000000001100010100100000000000000011100 )
b101111101111011000000000000010000000000000000000000000000000000001111 K"
1K)
#1539
0#
b1 %
b10001100000000000000001 )
b111111111111101000000000000000000000000000000000000000000111100001111 K"
#1600
0L)
#1602
1C#
1D#
b1111 E#
b10000000100000000000001100000000000000000000000000000000101000000000001000000000000011100 I#
b11111011111000100 k$
0K)
#1603
0C#
0D#
b0 E#
b10000000000000000000000000000000000000000000000000000000000000000000000000000000000000000 I#
b0 k$
#1664
1L)
#1666
1#
b1111 %
b11100000000000000000111000000000000000000000000000000010000000000000000000000000000000001100010100100000000000000011100 )
b101011101111011000000000000010000000000000000000000000000000000001111 K"
1K)
#1667
0#
b11100000000000000000110000000000000000000000000000000010000000000000000000000000000000001100010100100000000000000011100 )
b101111101111011000000000000010000000000000000000000000000000000001111 K"
#1728
0L)
#1730
1C#
1D#
b1111 E#
b1000000010000000100000000000001110000000000000000000000000000000101000000000001000000000000011100 I#
b11101010111000100 k$
0K)
#1731
0C#
0D#
b0 E#
b10000000000000000000000000000000000000000000000000000000000000000000000000000000000000000 I#
b0 k$
#1792
1L)
#1794
1#
0$
b11100000000000000000000000000000000000000001000000000010000000000000000000000000000000001100010100100000011000000000000 )
b101111001111011100000000000010000000000000000000000000000000000001111 K"
1K)
#1795
1$
b1 %
b101001100000110000000001000000 )
b111111111111001000000000000000000000000000000000000000000111100001111 K"
#1796
0#
0$
b1111 %
b11100000000000000000000000000000000000000001000000000010000000000000000000000000000000001100010100100000011000000000000 )
b101111001111011100000000000010000000000000000000000000000000000001111 K"
#1819
1#
b11100000000000000000000000000000000000000001000000000010000000000000000000000000000000001100010100100000011000000000100 )
b101111001111011000000000000010000000000000000000000000000000000001111 K"
#1820
1$
b1 %
b0 )
b111111111111111100000000000000000000000000000000000000000111100001111 K"
#1821
0#
0$
b1111 %
b11100000000000000000000000000000000000000001000000000010000000000000000000000000000000001100010100100000011000000000100 )
b101111001111011000000000000010000000000000000000000000000000000001111 K"
#1844
1#
b11100000000000000000000000000000000000000001000000000010000000000000000000000000000000001100010100100000011000000001000 )
#1845
1$
b1 %
b0 )
b111111111111111100000000000000000000000000000000000000000111100001111 K"
#1846
0#
0$
b1111 %
b11100000000000000000000000000000000000000001000000000010000000000000000000000000000000001100010100100000011000000001000 )
b101111001111011000000000000010000000000000000000000000000000000001111 K"
#1856
0L)
#1858
1#
b11100000000000000000000000000000000000000001000000000010000000000000000000000000000000001100010100100000011000000001100 )
b101111001111011100000000000010000000000000000000000000000000000001111 K"
0K)
#1859
1$
b1 %
b0 )
b111111111111111100000000000000000000000000000000000000000111100001111 K"
#1860
0#
0$
b1111 %
b11100000000000000000000000000000000000000001000000000010000000000000000000000000000000001100010100100000011000000001100 )
b101111001111011100000000000010000000000000000000000000000000000001111 K"
#1877
1#
1$
b11100000000000000000000000000000000000000000000000000010000000000000000000000000000000001100010100100000011000000000000 )
b101111101111011100000000000010000000000000000000000000000000000001111 K"
#1878
0#
b1 %
b0 )
b111111111111111100000000000000000000000000000000000000000111100001111 K"
#1920
1L)
#1922
1C#
1D#
b1111 E#
b101001100000110000000001000000000000010000000100000000000000000000000000000000000000000000000101000000000001000000000000000000 I#
b101011111000110 k$
1K)
#1923
0C#
0D#
b0 E#
b10000000000000000000000000000000000000000000000000000000000000000000000000000000000000000 I#
b0 k$
#1984
0L)
#1986
1#
b1111 %
b11100000000000000000001000000000000000000000000000000010000000000000000000000000000000001100010100100000000000000001000 )
b101011101111011000000000000010000000000000000000000000000000000001111 K"
0K)
#1987
0#
b11100000000000000000000000000000000000000000000000000010000000000000000000000000000000001100010100100000011000000000000 )
b101111101111011100000000000010000000000000000000000000000000000001111 K"
#2048
1L)
#2050
1C#
1D#
b1111 E#
b10000001000000000000000010000000100000000000000010000000000000000000000000000000101000000000001000000000000001000 I#
b10011010111000100 k$
1K)
#2051
0C#
0D#
b0 E#
b10000000000000000000000000000000000000000000000000000000000000000000000000000000000000000 I#
b0 k$
#2112
0L)
#2114
1#
b11100000000000000000010000000000000000000000000000000100000000000000000000000000000000001100010100100000000000000000000 )
b101011101111011100000000000010000000000000000000000000000000011111111 K"
0K)
#2115
0#
b11100000000000000000001000000000000000000000000000000010000000000000000000000000000000001100010100100000000000000001000 )
b101011101111011000000000000010000000000000000000000000000000000001111 K"
#2176
1L)
#2178
1C#
b1111 E#
b111100000000110011111111111111000000010000000100000000000000100000000000000000000000000000001001000000000010000000000000000000 I#
b11111010111000110 k$
1K)
#2179
1D#
b1 E#
b111100000000000000100000 I#
b11111111111111100 k$
#2180
0C#
0D#
b0 E#
b10000000000000000000000000000000000000000000000000000000000000000000000000000000000000000 I#
b0 k$
#2240
0L)
#2242
1#
0$
b11100000000000000000000000000000000000000001000000000010000000000000000000000000000000001100010100100000001000000000000 )
b101111001111010100000000000010000000000000000000000000000000000001111 K"
0K)
#2243
1$
b1 %
b1 )
b111111111111111000000000000000000000000000000000000000000111100001111 K"
#2244
0#
0$
b1111 %
b11100000000000000000000000000000000000000001000000000010000000000000000000000000000000001100010100100000001000000000000 )
b101111001111010100000000000010000000000000000000000000000000000001111 K"
#2304
1L)
#2306
1/%
10%
b1111 1%
b1000000000000000000000000000000010000000000000000000100000000000000000000000000000000100101010111111110100100000000000000 5%
b11111111 W&
1K)
#2307
0/%
00%
b0 1%
b1000000000000000000000000000000000000000000000000000000000000000000000000000000000000000000000000000000000000000000000000 5%
b0 W&
#2368
0L)
#2370
16'
b1111 8'
b110000000000000000000000000000000000000000100000000000000000001000001000000010000000000000000000000 <'
b11111111011000110000000000100000000000000001111000000000000 ^(
0K)
#2371
b0 <'
b11111111111111110000000000000000000000000001111111111111111 ^(
#2372
b10010101100001111101000100000000000000000000000000000000000000000000 <'
b11111111010111110000000000000000000000000001111111111111111 ^(
#2373
b100000000000000000000000000000000 <'
b11111111111011110000000000000000000000000001111111111111111 ^(
#2374
17'
b111 8'
b0 <'
b11111111111111110000000000000000000000000000000111111111111 ^(
#2375
06'
07'
b1111 8'
b100000000000000000000000000000000 <'
b11111111111011110000000000000000000000000001111111111111111 ^(
#2432
1L)
#2434
1/%
b1111 1%
b1000000000000000000000000000000010000000000001000001000000000000000000000000000000000100101011000011111010001000000000000 5%
b11111111 W&
1K)
#2435
b111000001100000011001100110110010010100011000001011000010011100101101000110011001100110101001100010100010011010001010001001101 5%
#2436
b100000010001110100111001010101010100110100110101000001010100110010000000100000001000000010000000100000001000000011001000110100 5%
#2437
b110000001100000011000000101101010100100100011101000101010010000011100000110010001100010101011101001100010101100101101001001101 5%
#2438
b100000001000000010000000100000001000000010000000100000001000000010000000100000001000000010000000100000001000000011000101001000 5%
#2439
b100000000000000000000000000010010100111000000000100101000100110001010010000011001100110111010000100101100001000011 5%
#2440
b100110001001011010000000000000000000001100001101010000000000000000000010000001000000000 5%
#2441
b0 5%
#2442
10%
#2443
0/%
00%
b0 1%
b1000000000000000000000000000000000000000000000000000000000000000000000000000000000000000000000000000000000000000000000000 5%
b0 W&
#2453
1/%
b1111 1%
b1000000000000000000000000000000010000000000001000001000000000000000000000000000000000100101011000011111010001000010000000 5%
b11111111 W&
#2454
b0 5%
#2461
10%
#2462
0/%
00%
b0 1%
b1000000000000000000000000000000000000000000000000000000000000000000000000000000000000000000000000000000000000000000000000 5%
b0 W&
#2472
1/%
b1111 1%
b1000000000000000000000000000000010000000000001000001000000000000000000000000000000000100101011000011111010001000100000000 5%
b11111111 W&
#2473
b1100100000000101011000000000010101010100000001000000010000010000111111000000110001011000000111000001110000000000010111 5%
#2474
b11101110011111000010101100000000000000000000000000000000000000000000000000000000000000000000000000000 5%
#2475
b0 5%
#2476
b100011000000000000000000000000000000000000000000000000000000000000000000000000000000000000000000000000 5%
#2477
b0 5%
#2480
10%
#2481
0/%
00%
b0 1%
b1000000000000000000000000000000000000000000000000000000000000000000000000000000000000000000000000000000000000000000000000 5%
b0 W&
#2491
1/%
b1111 1%
b1000000000000000000000000000000010000000000001000001000000000000000000000000000000000100101011000011111010001000110000000 5%
b11111111 W&
#2492
b0 5%
#2496
0L)
#2498
0K)
#2499
10%
#2500
0/%
00%
b0 1%
b1000000000000000000000000000000000000000000000000000000000000000000000000000000000000000000000000000000000000000000000000 5%
b0 W&
#2511
1/%
b1111 1%
b1000000000000000000000000000000010000000000001000001000000000000000000000000000000000100101011000011111010001001000000000 5%
b11111111 W&
#2512
b111111110000000100000000000000000000000000000000000111110000000000000000000000000000000100000000000000000100010001100110 5%
#2513
b10000000000000000 5%
#2514
b0 5%
#2519
10%
#2520
0/%
00%
b0 1%
b1000000000000000000000000000000000000000000000000000000000000000000000000000000000000000000000000000000000000000000000000 5%
b0 W&
#2530
1/%
b1111 1%
b1000000000000000000000000000000010000000000001000001000000000000000000000000000000000100101011000011111010001001010000000 5%
b11111111 W&
#2531
b0 5%
#2538
10%
#2539
0/%
00%
b0 1%
b1000000000000000000000000000000000000000000000000000000000000000000000000000000000000000000000000000000000000000000000000 5%
b0 W&
#2549
1/%
b1111 1%
b1000000000000000000000000000000010000000000001000001000000000000000000000000000000000100101011000011111010001001100000000 5%
b11111111 W&
#2550
b0 5%
#2557
10%
#2558
0/%
00%
b0 1%
b1000000000000000000000000000000000000000000000000000000000000000000000000000000000000000000000000000000000000000000000000 5%
b0 W&
#2560
1L)
#2562
1/%
b1111 1%
b1000000000000000000000000000000010000000000001000001000000000000000000000000000000000100101011000011111010001001110000000 5%
b11111111 W&
1K)
#2563
b0 5%
#2570
10%
#2571
0/%
00%
b0 1%
b1000000000000000000000000000000000000000000000000000000000000000000000000000000000000000000000000000000000000000000000000 5%
b0 W&
#2581
1/%
b1111 1%
b1000000000000000000000000000000010000000000001000001000000000000000000000000000000000100101011000011111010001010000000000 5%
b11111111 W&
#2582
b0 5%
#2589
10%
#2590
0/%
00%
b0 1%
b1000000000000000000000000000000000000000000000000000000000000000000000000000000000000000000000000000000000000000000000000 5%
b0 W&
#2600
1/%
b1111 1%
b1000000000000000000000000000000010000000000001000001000000000000000000000000000000000100101011000011111010001010010000000 5%
b11111111 W&
#2601
b0 5%
#2608
10%
#2609
0/%
00%
b0 1%
b1000000000000000000000000000000000000000000000000000000000000000000000000000000000000000000000000000000000000000000000000 5%
b0 W&
#2619
1/%
b1111 1%
b1000000000000000000000000000000010000000000001000001000000000000000000000000000000000100101011000011111010001010100000000 5%
b11111111 W&
#2620
b0 5%
#2624
0L)
#2626
0K)
#2627
10%
#2628
0/%
00%
b0 1%
b1000000000000000000000000000000000000000000000000000000000000000000000000000000000000000000000000000000000000000000000000 5%
b0 W&
#2638
1/%
b1111 1%
b1000000000000000000000000000000010000000000001000001000000000000000000000000000000000100101011000011111010001010110000000 5%
b11111111 W&
#2639
b0 5%
#2646
10%
#2647
0/%
00%
b0 1%
b1000000000000000000000000000000000000000000000000000000000000000000000000000000000000000000000000000000000000000000000000 5%
b0 W&
#2657
1/%
b1111 1%
b1000000000000000000000000000000010000000000001000001000000000000000000000000000000000100101011000011111010001011000000000 5%
b11111111 W&
#2658
b0 5%
#2665
10%
#2666
0/%
00%
b0 1%
b1000000000000000000000000000000000000000000000000000000000000000000000000000000000000000000000000000000000000000000000000 5%
b0 W&
#2676
1/%
b1111 1%
b1000000000000000000000000000000010000000000001000001000000000000000000000000000000000100101011000011111010001011010000000 5%
b11111111 W&
#2677
b0 5%
#2684
10%
#2685
0/%
00%
b0 1%
b1000000000000000000000000000000000000000000000000000000000000000000000000000000000000000000000000000000000000000000000000 5%
b0 W&
#2688
1L)
#2690
1/%
b1111 1%
b1000000000000000000000000000000010000000000001000001000000000000000000000000000000000100101011000011111010001011100000000 5%
b11111111 W&
1K)
#2691
b0 5%
#2698
10%
#2699
0/%
00%
b0 1%
b1000000000000000000000000000000000000000000000000000000000000000000000000000000000000000000000000000000000000000000000000 5%
b0 W&
#2709
1/%
b1111 1%
b1000000000000000000000000000000010000000000001000001000000000000000000000000000000000100101011000011111010001011110000000 5%
b11111111 W&
#2710
b0 5%
#2717
10%
#2718
0/%
00%
b0 1%
b1000000000000000000000000000000000000000000000000000000000000000000000000000000000000000000000000000000000000000000000000 5%
b0 W&
#2728
1/%
b1111 1%
b1000000000000000000000000000000010000000000001000001000000000000000000000000000000000100101011000011111010001100000000000 5%
b11111111 W&
#2729
b1011111000 5%
#2730
b0 5%
#2731
b1000000010000000100000001000000000000000000000000000000000000000000000000000000000000000000000000000000000000001001011000 5%
#2732
b0 5%
#2733
b10000000100000001000000010000000000000000000000000000000000000000000000000000000000000000000000000000000000000000111111110 5%
#2734
b0 5%
#2735
b11000000110000001100000011000000000000000000000101110111000000000000000000000000001101001000000011000000000000000110010000 5%
#2736
10%
b0 5%
#2737
0/%
00%
b0 1%
b1000000000000000000000000000000000000000000000000000000000000000000000000000000000000000000000000000000000000000000000000 5%
b0 W&
#2747
1/%
b1111 1%
b1000000000000000000000000000000010000000000001000001000000000000000000000000000000000100101011000011111010001100010000000 5%
b11111111 W&
#2748
b100000001000000010000000100000000000000000000010111011100000000000000000000000010001001100000000011000000000000000000110010 5%
#2749
b0 5%
#2752
0L)
#2754
0K)
#2755
10%
#2756
0/%
00%
b0 1%
b1000000000000000000000000000000000000000000000000000000000000000000000000000000000000000000000000000000000000000000000000 5%
b0 W&
#2766
1/%
b1111 1%
b1000000000000000000000000000000010000000000001000001000000000000000000000000000000000100101011000011111010001100100000000 5%
b11111111 W&
#2767
b0 5%
#2774
10%
#2775
0/%
00%
b0 1%
b1000000000000000000000000000000000000000000000000000000000000000000000000000000000000000000000000000000000000000000000000 5%
b0 W&
#2785
1/%
b1111 1%
b1000000000000000000000000000000010000000000001000001000000000000000000000000000000000100101011000011111010001100110000000 5%
b11111111 W&
#2786
b0 5%
#2793
10%
#2794
0/%
00%
b0 1%
b1000000000000000000000000000000000000000000000000000000000000000000000000000000000000000000000000000000000000000000000000 5%
b0 W&
#2805
1/%
b1111 1%
b1000000000000000000000000000000010000000000001000001000000000000000000000000000000000100101011000011111010001101000000000 5%
b11111111 W&
#2806
b0 5%
#2813
10%
#2814
0/%
00%
b0 1%
b1000000000000000000000000000000000000000000000000000000000000000000000000000000000000000000000000000000000000000000000000 5%
b0 W&
#2816
1L)
#2818
1/%
b1111 1%
b1000000000000000000000000000000010000000000001000001000000000000000000000000000000000100101011000011111010001101010000000 5%
b11111111 W&
1K)
#2819
b0 5%
#2826
10%
#2827
0/%
00%
b0 1%
b1000000000000000000000000000000000000000000000000000000000000000000000000000000000000000000000000000000000000000000000000 5%
b0 W&
#2837
1/%
b1111 1%
b1000000000000000000000000000000010000000000001000001000000000000000000000000000000000100101011000011111010001101100000000 5%
b11111111 W&
#2838
b0 5%
#2845
10%
#2846
0/%
00%
b0 1%
b1000000000000000000000000000000000000000000000000000000000000000000000000000000000000000000000000000000000000000000000000 5%
b0 W&
#2856
1/%
b1111 1%
b1000000000000000000000000000000010000000000001000001000000000000000000000000000000000100101011000011111010001101110000000 5%
b11111111 W&
#2857
b0 5%
#2864
10%
